FFT/Verilog/fft_cases.vcd
$date
	Mon Apr 13 18:17:43 2026
$end
$version
	Icarus Verilog
$end
$timescale
	1ps
$end
$scope module tb_fft_cases $end
$var wire 11 ! xr_out [10:0] $end
$var wire 11 " xi_out [10:0] $end
$var wire 1 # valid_out $end
$var parameter 32 $ FRAC $end
$var parameter 32 % INT $end
$var parameter 32 & IN_INT $end
$var parameter 33 ' IN_W $end
$var parameter 32 ( N $end
$var parameter 33 ) W $end
$var reg 1 * clk $end
$var reg 1 + rst $end
$var reg 1 , valid_in $end
$var reg 8 - xi_in [7:0] $end
$var reg 8 . xr_in [7:0] $end
$var integer 32 / code [31:0] $end
$var integer 32 0 fin [31:0] $end
$var integer 32 1 fout [31:0] $end
$var integer 32 2 in_i [31:0] $end
$var integer 32 3 in_r [31:0] $end
$var integer 32 4 k [31:0] $end
$scope module DUT $end
$var wire 1 * clk $end
$var wire 1 + rst $end
$var wire 1 , valid_in $end
$var wire 1 # valid_out $end
$var wire 8 5 xi_in [7:0] $end
$var wire 11 6 xi_out [10:0] $end
$var wire 8 7 xr_in [7:0] $end
$var wire 11 8 xr_out [10:0] $end
$var wire 11 9 xri_ext [10:0] $end
$var wire 11 : xii_ext [10:0] $end
$var wire 1 ; v3 $end
$var wire 1 < v2 $end
$var wire 1 = v1 $end
$var wire 11 > s3r [10:0] $end
$var wire 11 ? s3i [10:0] $end
$var wire 11 @ s2r [10:0] $end
$var wire 11 A s2i [10:0] $end
$var wire 11 B s1r [10:0] $end
$var wire 11 C s1i [10:0] $end
$var parameter 32 D FRAC $end
$var parameter 32 E INT $end
$var parameter 32 F IN_INT $end
$var parameter 33 G IN_W $end
$var parameter 33 H W $end
$scope module STAGE1 $end
$var wire 1 * clk $end
$var wire 1 + rst $end
$var wire 1 , valid_in $end
$var wire 11 I xi_in [10:0] $end
$var wire 11 J xr_in [10:0] $end
$var wire 11 K sum_r [10:0] $end
$var wire 11 L sum_i [10:0] $end
$var wire 8 M idx [7:0] $end
$var wire 11 N diff_tw_r [10:0] $end
$var wire 11 O diff_tw_i [10:0] $end
$var parameter 32 P DELAY $end
$var parameter 32 Q FRAC $end
$var parameter 32 R INT $end
$var parameter 11 S ONE_I $end
$var parameter 11 T SQ_I $end
$var parameter 32 U STAGE $end
$var parameter 33 V W $end
$var reg 11 W a_i [10:0] $end
$var reg 11 X a_r [10:0] $end
$var reg 11 Y b_i [10:0] $end
$var reg 11 Z b_r [10:0] $end
$var reg 8 [ count [7:0] $end
$var reg 1 \ primed $end
$var reg 1 = valid_out $end
$var reg 11 ] wi [10:0] $end
$var reg 11 ^ wr [10:0] $end
$var reg 11 _ xi_out [10:0] $end
$var reg 11 ` xr_out [10:0] $end
$var integer 32 a i [31:0] $end
$scope module BF $end
$var wire 11 b ai [10:0] $end
$var wire 11 c ar [10:0] $end
$var wire 11 d bi [10:0] $end
$var wire 11 e br [10:0] $end
$var wire 11 f wi [10:0] $end
$var wire 11 g wr [10:0] $end
$var wire 12 h sum_r_w [11:0] $end
$var wire 11 i sum_r [10:0] $end
$var wire 12 j sum_i_w [11:0] $end
$var wire 11 k sum_i [10:0] $end
$var wire 11 l diff_tw_r [10:0] $end
$var wire 11 m diff_tw_i [10:0] $end
$var wire 12 n diff_r_w [11:0] $end
$var wire 11 o diff_r [10:0] $end
$var wire 12 p diff_i_w [11:0] $end
$var wire 11 q diff_i [10:0] $end
$var parameter 32 r FRAC $end
$var parameter 32 s INT $end
$var parameter 33 t W $end
$scope module CMULT $end
$var wire 11 u ai [10:0] $end
$var wire 11 v ar [10:0] $end
$var wire 11 w bi [10:0] $end
$var wire 11 x br [10:0] $end
$var wire 23 y real_scaled [22:0] $end
$var wire 23 z real_full [22:0] $end
$var wire 11 { pr [10:0] $end
$var wire 11 | pi [10:0] $end
$var wire 23 } imag_scaled [22:0] $end
$var wire 23 ~ imag_full [22:0] $end
$var wire 22 !" bd [21:0] $end
$var wire 22 "" bc [21:0] $end
$var wire 22 #" ad [21:0] $end
$var wire 22 $" ac [21:0] $end
$var parameter 32 %" FRAC $end
$var parameter 32 &" INT $end
$var parameter 33 '" W $end
$upscope $end
$upscope $end
$upscope $end
$scope module STAGE2 $end
$var wire 1 * clk $end
$var wire 1 + rst $end
$var wire 1 = valid_in $end
$var wire 11 (" xi_in [10:0] $end
$var wire 11 )" xr_in [10:0] $end
$var wire 11 *" sum_r [10:0] $end
$var wire 11 +" sum_i [10:0] $end
$var wire 8 ," idx [7:0] $end
$var wire 11 -" diff_tw_r [10:0] $end
$var wire 11 ." diff_tw_i [10:0] $end
$var parameter 32 /" DELAY $end
$var parameter 32 0" FRAC $end
$var parameter 32 1" INT $end
$var parameter 11 2" ONE_I $end
$var parameter 11 3" SQ_I $end
$var parameter 32 4" STAGE $end
$var parameter 33 5" W $end
$var reg 11 6" a_i [10:0] $end
$var reg 11 7" a_r [10:0] $end
$var reg 11 8" b_i [10:0] $end
$var reg 11 9" b_r [10:0] $end
$var reg 8 :" count [7:0] $end
$var reg 1 ;" primed $end
$var reg 1 < valid_out $end
$var reg 11 <" wi [10:0] $end
$var reg 11 =" wr [10:0] $end
$var reg 11 >" xi_out [10:0] $end
$var reg 11 ?" xr_out [10:0] $end
$var integer 32 @" i [31:0] $end
$scope module BF $end
$var wire 11 A" ai [10:0] $end
$var wire 11 B" ar [10:0] $end
$var wire 11 C" bi [10:0] $end
$var wire 11 D" br [10:0] $end
$var wire 11 E" wi [10:0] $end
$var wire 11 F" wr [10:0] $end
$var wire 12 G" sum_r_w [11:0] $end
$var wire 11 H" sum_r [10:0] $end
$var wire 12 I" sum_i_w [11:0] $end
$var wire 11 J" sum_i [10:0] $end
$var wire 11 K" diff_tw_r [10:0] $end
$var wire 11 L" diff_tw_i [10:0] $end
$var wire 12 M" diff_r_w [11:0] $end
$var wire 11 N" diff_r [10:0] $end
$var wire 12 O" diff_i_w [11:0] $end
$var wire 11 P" diff_i [10:0] $end
$var parameter 32 Q" FRAC $end
$var parameter 32 R" INT $end
$var parameter 33 S" W $end
$scope module CMULT $end
$var wire 11 T" ai [10:0] $end
$var wire 11 U" ar [10:0] $end
$var wire 11 V" bi [10:0] $end
$var wire 11 W" br [10:0] $end
$var wire 23 X" real_scaled [22:0] $end
$var wire 23 Y" real_full [22:0] $end
$var wire 11 Z" pr [10:0] $end
$var wire 11 [" pi [10:0] $end
$var wire 23 \" imag_scaled [22:0] $end
$var wire 23 ]" imag_full [22:0] $end
$var wire 22 ^" bd [21:0] $end
$var wire 22 _" bc [21:0] $end
$var wire 22 `" ad [21:0] $end
$var wire 22 a" ac [21:0] $end
$var parameter 32 b" FRAC $end
$var parameter 32 c" INT $end
$var parameter 33 d" W $end
$upscope $end
$upscope $end
$upscope $end
$scope module STAGE3 $end
$var wire 1 * clk $end
$var wire 1 + rst $end
$var wire 1 < valid_in $end
$var wire 11 e" xi_in [10:0] $end
$var wire 11 f" xr_in [10:0] $end
$var wire 11 g" sum_r [10:0] $end
$var wire 11 h" sum_i [10:0] $end
$var wire 8 i" idx [7:0] $end
$var wire 11 j" diff_tw_r [10:0] $end
$var wire 11 k" diff_tw_i [10:0] $end
$var parameter 32 l" DELAY $end
$var parameter 32 m" FRAC $end
$var parameter 32 n" INT $end
$var parameter 11 o" ONE_I $end
$var parameter 11 p" SQ_I $end
$var parameter 32 q" STAGE $end
$var parameter 33 r" W $end
$var reg 11 s" a_i [10:0] $end
$var reg 11 t" a_r [10:0] $end
$var reg 11 u" b_i [10:0] $end
$var reg 11 v" b_r [10:0] $end
$var reg 8 w" count [7:0] $end
$var reg 1 x" primed $end
$var reg 1 ; valid_out $end
$var reg 11 y" wi [10:0] $end
$var reg 11 z" wr [10:0] $end
$var reg 11 {" xi_out [10:0] $end
$var reg 11 |" xr_out [10:0] $end
$var integer 32 }" i [31:0] $end
$scope module BF $end
$var wire 11 ~" ai [10:0] $end
$var wire 11 !# ar [10:0] $end
$var wire 11 "# bi [10:0] $end
$var wire 11 ## br [10:0] $end
$var wire 11 $# wi [10:0] $end
$var wire 11 %# wr [10:0] $end
$var wire 12 &# sum_r_w [11:0] $end
$var wire 11 '# sum_r [10:0] $end
$var wire 12 (# sum_i_w [11:0] $end
$var wire 11 )# sum_i [10:0] $end
$var wire 11 *# diff_tw_r [10:0] $end
$var wire 11 +# diff_tw_i [10:0] $end
$var wire 12 ,# diff_r_w [11:0] $end
$var wire 11 -# diff_r [10:0] $end
$var wire 12 .# diff_i_w [11:0] $end
$var wire 11 /# diff_i [10:0] $end
$var parameter 32 0# FRAC $end
$var parameter 32 1# INT $end
$var parameter 33 2# W $end
$scope module CMULT $end
$var wire 11 3# ai [10:0] $end
$var wire 11 4# ar [10:0] $end
$var wire 11 5# bi [10:0] $end
$var wire 11 6# br [10:0] $end
$var wire 23 7# real_scaled [22:0] $end
$var wire 23 8# real_full [22:0] $end
$var wire 11 9# pr [10:0] $end
$var wire 11 :# pi [10:0] $end
$var wire 23 ;# imag_scaled [22:0] $end
$var wire 23 <# imag_full [22:0] $end
$var wire 22 =# bd [21:0] $end
$var wire 22 ># bc [21:0] $end
$var wire 22 ?# ad [21:0] $end
$var wire 22 @# ac [21:0] $end
$var parameter 32 A# FRAC $end
$var parameter 32 B# INT $end
$var parameter 33 C# W $end
$upscope $end
$upscope $end
$upscope $end
$upscope $end
$scope task close_case_files $end
$upscope $end
$scope task open_case_files $end
$var integer 32 D# cid [31:0] $end
$upscope $end
$scope task reset_dut $end
$upscope $end
$scope task run_case $end
$var integer 32 E# cid [31:0] $end
$upscope $end
$upscope $end
$enddefinitions $end
$comment Show the parameter values. $end
$dumpall
b1011 C#
b110 B#
b101 A#
b1011 2#
b110 1#
b101 0#
b1011 r"
b11 q"
b10110 p"
b100000 o"
b110 n"
b101 m"
b1 l"
b1011 d"
b110 c"
b101 b"
b1011 S"
b110 R"
b101 Q"
b1011 5"
b10 4"
b10110 3"
b100000 2"
b110 1"
b101 0"
b10 /"
b1011 '"
b110 &"
b101 %"
b1011 t
b110 s
b101 r
b1011 V
b1 U
b10110 T
b100000 S
b110 R
b101 Q
b100 P
b1011 H
b1000 G
b11 F
b110 E
b101 D
b1011 )
b1000 (
b1000 '
b11 &
b110 %
b101 $
$end
#0
$dumpvars
b1 E#
b1 D#
b0 @#
b0 ?#
b0 >#
b0 =#
b0 <#
b0 ;#
b0 :#
b0 9#
b0 8#
b0 7#
b100000 6#
b0 5#
b0 4#
b0 3#
b0 /#
b0 .#
b0 -#
b0 ,#
b0 +#
b0 *#
b0 )#
b0 (#
b0 '#
b0 &#
b100000 %#
b0 $#
b0 ##
b0 "#
b0 !#
b0 ~"
b1 }"
b0 |"
b0 {"
b100000 z"
b0 y"
0x"
b0 w"
b0 v"
b0 u"
b0 t"
b0 s"
b0 k"
b0 j"
b11111111 i"
b0 h"
b0 g"
b0 f"
b0 e"
b0 a"
b0 `"
b0 _"
b0 ^"
b0 ]"
b0 \"
b0 ["
b0 Z"
b0 Y"
b0 X"
b100000 W"
b0 V"
b0 U"
b0 T"
b0 P"
b0 O"
b0 N"
b0 M"
b0 L"
b0 K"
b0 J"
b0 I"
b0 H"
b0 G"
b100000 F"
b0 E"
b0 D"
b0 C"
b0 B"
b0 A"
b10 @"
b0 ?"
b0 >"
b100000 ="
b0 <"
0;"
b0 :"
b0 9"
b0 8"
b0 7"
b0 6"
b0 ."
b0 -"
b11111110 ,"
b0 +"
b0 *"
b0 )"
b0 ("
b0 $"
b0 #"
b0 ""
b0 !"
b0 ~
b0 }
b0 |
b0 {
b0 z
b0 y
b100000 x
b0 w
b0 v
b0 u
b0 q
b0 p
b0 o
b0 n
b0 m
b0 l
b0 k
b0 j
b0 i
b0 h
b100000 g
b0 f
b0 e
b0 d
b0 c
b0 b
b100 a
b0 `
b0 _
b100000 ^
b0 ]
0\
b0 [
b0 Z
b0 Y
b0 X
b0 W
b0 O
b0 N
b11111100 M
b0 L
b0 K
b0 J
b0 I
b0 C
b0 B
b0 A
b0 @
b0 ?
b0 >
0=
0<
0;
b0 :
b0 9
b0 8
b0 7
b0 6
b0 5
bx 4
bx 3
bx 2
b10000000000000000000000000000100 1
b10000000000000000000000000000011 0
bx /
b0 .
b0 -
0,
1+
0*
0#
b0 "
b0 !
$end
#5000
b1 }"
b10 @"
b100 a
1*
#10000
0*
#15000
b100 a
b10 @"
b1 }"
1*
#20000
0*
#25000
b1 }"
b10 @"
b100 a
1*
#30000
0*
#35000
b10 /
b0 2
b100000 3
b0 4
0+
1*
#40000
0*
#45000
b11111100000 N
b11111100000 l
b11111100000 {
b11111111111111111100000 y
b100000 K
b100000 i
b11111111111110000000000 z
b1111111111110000000000 $"
b11111100000 o
b11111100000 v
b100000 h
b111111100000 n
b100000 Z
b100000 e
b100000 9
b100000 J
b100000 .
b100000 7
1,
b0 3
b1 4
1*
#50000
0*
#55000
b0 N
b0 l
b0 {
b0 y
b0 K
b0 i
b0 z
b0 $"
b0 o
b0 v
b11111101 M
b0 h
b0 n
b0 Z
b0 e
b1 [
b0 9
b0 J
b0 .
b0 7
b10 4
1*
#60000
0*
#65000
b11111110 M
b10 [
b11 4
1*
#70000
0*
#75000
b11111111 M
b11 [
b100 4
1*
#80000
0*
#85000
b100000 N
b100000 l
b100000 {
b100000 y
b100000 K
b100000 i
b10000000000 z
b10000000000 $"
b100000 o
b100000 v
b100000 h
b100000 n
b100000 X
b100000 c
b0 M
b100 [
b101 4
1*
#90000
0*
#95000
b0 N
b0 l
b0 {
b11111100000 -"
b11111100000 K"
b11111100000 Z"
b0 y
b11111111111111111100000 X"
b0 K
b0 i
b0 o
b0 v
b0 ~
b0 #"
b11111101010 ]
b11111101010 f
b11111101010 w
b0 z
b0 $"
b10110 ^
b10110 g
b10110 x
b100000 *"
b100000 H"
b11111111111110000000000 Y"
b1111111111110000000000 a"
b11111100000 N"
b11111100000 U"
b0 h
b0 n
b0 X
b0 c
b1 M
b100000 G"
b111111100000 M"
b100000 9"
b100000 D"
b101 [
b100000 B
b100000 `
b100000 )"
1=
b110 4
1*
#100000
0*
#105000
b0 -"
b0 K"
b0 Z"
b0 X"
b11111100000 <"
b11111100000 E"
b11111100000 V"
b0 ="
b0 F"
b0 W"
b11111100000 ]
b11111100000 f
b11111100000 w
b0 ^
b0 g
b0 x
b0 *"
b0 H"
b0 Y"
b0 a"
b0 N"
b0 U"
b11111111 ,"
b10 M
b0 G"
b0 M"
b0 9"
b0 D"
b1 :"
b110 [
b0 B
b0 `
b0 )"
1=
b111 4
1*
#110000
0*
#115000
b100000 -"
b100000 K"
b100000 Z"
b100000 X"
b11111101010 ]
b11111101010 f
b11111101010 w
b11111101010 ^
b11111101010 g
b11111101010 x
b100000 *"
b100000 H"
b10000000000 Y"
b10000000000 a"
b100000 N"
b100000 U"
b0 <"
b0 E"
b0 V"
b100000 ="
b100000 F"
b100000 W"
b11 M
b100000 G"
b100000 M"
b100000 7"
b100000 B"
b0 ,"
b111 [
1=
b10 :"
b1000 4
1*
#120000
0*
#125000
b0 -"
b0 K"
b0 Z"
b11111100000 j"
b11111100000 *#
b11111100000 9#
b0 X"
b11111111111111111100000 7#
b0 *"
b0 H"
b0 N"
b0 U"
b0 ]"
b0 `"
b11111100000 <"
b11111100000 E"
b11111100000 V"
b0 Y"
b0 a"
b0 ="
b0 F"
b0 W"
b100000 g"
b100000 '#
b11111111111110000000000 8#
b1111111111110000000000 @#
b11111100000 -#
b11111100000 4#
b0 ]
b0 f
b0 w
b100000 ^
b100000 g
b100000 x
b0 G"
b0 M"
b0 7"
b0 B"
b1 ,"
b100000 &#
b111111100000 ,#
b100000 v"
b100000 ##
b11111100 M
b11 :"
b100000 @
b100000 ?"
b100000 f"
1<
1\
b0 [
1=
0,
b0 4
1*
#130000
0*
#135000
b11111100000 -"
b11111100000 K"
b11111100000 Z"
b100000 j"
b100000 *#
b100000 9#
b0 k"
b0 +#
b0 :#
b11111111111111111100000 X"
b100000 7#
b0 ;#
b100000 *"
b100000 H"
b11111111111110000000000 Y"
b1111111111110000000000 a"
b11111100000 N"
b11111100000 U"
b0 <"
b0 E"
b0 V"
b100000 ="
b100000 F"
b100000 W"
b0 h"
b0 )#
b0 =#
b0 >#
b0 /#
b0 3#
b100000 g"
b100000 '#
b10000000000 8#
b10000000000 @#
b0 <#
b0 ?#
b100000 -#
b100000 4#
b11111101 M
b100000 G"
b111111100000 M"
b100000 9"
b100000 D"
b11111110 ,"
b0 i"
b0 (#
b0 .#
b0 s"
b0 ~"
b100000 t"
b100000 !#
b100000 &#
b100000 ,#
b0 v"
b0 ##
b1 [
b100000 B
b100000 `
b100000 )"
1=
1;"
b0 :"
b0 @
b0 ?"
b0 f"
1<
b1 w"
b1 4
1*
#140000
0*
#145000
b11111100000 j"
b11111100000 *#
b11111100000 9#
b0 -"
b0 K"
b0 Z"
b11111111111111111100000 7#
b0 X"
b11111100000 <"
b11111100000 E"
b11111100000 V"
b0 ="
b0 F"
b0 W"
b11111111111110000000000 8#
b1111111111110000000000 @#
b11111100000 -#
b11111100000 4#
b0 *"
b0 H"
b0 Y"
b0 a"
b0 N"
b0 U"
b11111111 i"
b11111111 ,"
b100000 v"
b100000 ##
b100000 &#
b111111100000 ,#
b0 t"
b0 !#
b11111110 M
b0 G"
b0 M"
b0 9"
b0 D"
1x"
b0 w"
b100000 !
b100000 8
b100000 >
b100000 |"
1#
1;
b1 :"
b100000 @
b100000 ?"
b100000 f"
1<
b10 [
b0 B
b0 `
b0 )"
1=
b10 4
1*
#150000
0*
#155000
b100000 -"
b100000 K"
b100000 Z"
b100000 j"
b100000 *#
b100000 9#
b100000 X"
b100000 7#
b100000 *"
b100000 H"
b10000000000 Y"
b10000000000 a"
b100000 N"
b100000 U"
b0 <"
b0 E"
b0 V"
b100000 ="
b100000 F"
b100000 W"
b10000000000 8#
b10000000000 @#
b100000 -#
b100000 4#
b11111111 M
b100000 G"
b100000 M"
b100000 7"
b100000 B"
b0 ,"
b100000 t"
b100000 !#
b100000 &#
b100000 ,#
b0 v"
b0 ##
b0 i"
b11 [
1=
b10 :"
b0 @
b0 ?"
b0 f"
1<
b1 w"
b100000 !
b100000 8
b100000 >
b100000 |"
1#
1;
b11 4
1*
#160000
0*
#165000
b0 -"
b0 K"
b0 Z"
b11111100000 j"
b11111100000 *#
b11111100000 9#
b0 X"
b11111111111111111100000 7#
b0 *"
b0 H"
b0 N"
b0 U"
b0 ]"
b0 `"
b11111100000 <"
b11111100000 E"
b11111100000 V"
b0 Y"
b0 a"
b0 ="
b0 F"
b0 W"
b11111111111110000000000 8#
b1111111111110000000000 @#
b11111100000 -#
b11111100000 4#
b11111111 i"
b0 G"
b0 M"
b0 7"
b0 B"
b1 ,"
b100000 v"
b100000 ##
b100000 &#
b111111100000 ,#
b0 t"
b0 !#
b11111100 M
b0 w"
b100000 !
b100000 8
b100000 >
b100000 |"
1#
1;
b11 :"
b100000 @
b100000 ?"
b100000 f"
1<
0\
b0 [
1=
b100 4
1*
#170000
0*
#175000
b100000 j"
b100000 *#
b100000 9#
b100000 7#
b0 <"
b0 E"
b0 V"
b100000 ="
b100000 F"
b100000 W"
b10000000000 8#
b10000000000 @#
b100000 -#
b100000 4#
b11111110 ,"
b100000 t"
b100000 !#
b100000 &#
b100000 ,#
b0 v"
b0 ##
b0 i"
0=
b0 :"
b0 @
b0 ?"
b0 f"
1<
b1 w"
b100000 !
b100000 8
b100000 >
b100000 |"
1#
1;
b101 4
1*
#180000
0*
#185000
b11111100000 j"
b11111100000 *#
b11111100000 9#
b11111111111111111100000 7#
b11111100000 <"
b11111100000 E"
b11111100000 V"
b0 ="
b0 F"
b0 W"
b11111111111110000000000 8#
b1111111111110000000000 @#
b11111100000 -#
b11111100000 4#
b11111111 i"
b11111111 ,"
b100000 v"
b100000 ##
b100000 &#
b111111100000 ,#
b0 t"
b0 !#
b0 w"
b100000 !
b100000 8
b100000 >
b100000 |"
1#
1;
b1 :"
b100000 @
b100000 ?"
b100000 f"
1<
b110 4
1*
#190000
0*
#195000
b100000 j"
b100000 *#
b100000 9#
b100000 7#
b0 <"
b0 E"
b0 V"
b100000 ="
b100000 F"
b100000 W"
b10000000000 8#
b10000000000 @#
b100000 -#
b100000 4#
b11111110 ,"
b100000 t"
b100000 !#
b100000 &#
b100000 ,#
b0 v"
b0 ##
b0 i"
0;"
b0 :"
b0 @
b0 ?"
b0 f"
1<
b1 w"
b100000 !
b100000 8
b100000 >
b100000 |"
1#
1;
b111 4
1*
#200000
0*
#205000
b0 j"
b0 *#
b0 9#
b0 7#
b0 g"
b0 '#
b0 8#
b0 @#
b0 -#
b0 4#
b0 &#
b0 ,#
b0 t"
b0 !#
b11111111 i"
b0 w"
b100000 !
b100000 8
b100000 >
b100000 |"
1#
1;
0<
b1000 4
1*
#210000
0*
#215000
0x"
b100000 !
b100000 8
b100000 >
b100000 |"
1#
1;
b1001 4
1*
#220000
0*
#225000
b0 !
b0 8
b0 >
b0 |"
0#
0;
b1010 4
1*
#230000
0*
#235000
b1011 4
1*
#240000
0*
#245000
b1100 4
1*
#250000
0*
#255000
b1101 4
1*
#260000
0*
#265000
b1110 4
1*
#270000
0*
#275000
b1111 4
1*
#280000
0*
#285000
b10000 4
1*
#290000
0*
#295000
b10001 4
1*
#300000
0*
#305000
b10010 4
1*
#310000
0*
#315000
b10011 4
1*
#320000
0*
#325000
b10100 4
1*
#330000
0*
#335000
b10101 4
1*
#340000
0*
#345000
b10110 4
1*
#350000
0*
#355000
b10111 4
1*
#360000
0*
#365000
b11000 4
1*
#370000
0*
#375000
b11001 4
1*
#380000
0*
#385000
b11010 4
1*
#390000
0*
#395000
b11011 4
1*
#400000
0*
#405000
b11100 4
1*
#410000
0*
#415000
b11101 4
1*
#420000
0*
#425000
b11110 4
1*
#430000
0*
#435000
b11111 4
1*
#440000
0*
#445000
b100000 4
1*
#450000
0*
#455000
b100001 4
1*
#460000
0*
#465000
b100010 4
1*
#470000
0*
#475000
b100011 4
1*
#480000
0*
#485000
b100100 4
1*
#490000
0*
#495000
b100101 4
1*
#500000
0*
#505000
b100110 4
1*
#510000
0*
#515000
b100111 4
1*
#520000
0*
#525000
b101000 4
1*
#530000
0*
#535000
b101001 4
1*
#540000
0*
#545000
b101010 4
1*
#550000
0*
#555000
b101011 4
1*
#560000
0*
#565000
b101100 4
1*
#570000
0*
#575000
b101101 4
1*
#580000
0*
#585000
b101110 4
1*
#590000
0*
#595000
b101111 4
1*
#600000
0*
#605000
b110000 4
1*
#610000
0*
#615000
b110001 4
1*
#620000
0*
#625000
b1 }"
b10 @"
b100 a
1+
b10 D#
b10 E#
b110010 4
1*
#630000
0*
#635000
b100 a
b10 @"
b1 }"
1*
#640000
0*
#645000
b1 }"
b10 @"
b100 a
1*
#650000
0*
#655000
b100 a
b10 @"
b1 }"
1*
#660000
0*
#665000
b100000 3
b0 4
0+
1*
#670000
0*
#675000
b11111100000 N
b11111100000 l
b11111100000 {
b11111111111111111100000 y
b100000 K
b100000 i
b11111111111110000000000 z
b1111111111110000000000 $"
b11111100000 o
b11111100000 v
b100000 h
b111111100000 n
b100000 Z
b100000 e
b100000 9
b100000 J
b100000 .
b100000 7
1,
b1 4
1*
#680000
0*
#685000
b11111101 M
b1 [
b10 4
1*
#690000
0*
#695000
b11111110 M
b10 [
b11 4
1*
#700000
0*
#705000
b11111111 M
b11 [
b100 4
1*
#710000
0*
#715000
b0 N
b0 l
b0 {
b0 O
b0 m
b0 |
b0 y
b0 }
b0 L
b0 k
b0 !"
b0 ""
b0 q
b0 u
b1000000 K
b1000000 i
b0 z
b0 $"
b0 ~
b0 #"
b0 o
b0 v
b0 M
b0 j
b0 p
b0 W
b0 b
b1000000 h
b0 n
b100000 X
b100000 c
b100 [
b101 4
1*
#720000
0*
#725000
b0 N
b0 l
b0 {
b11111000000 -"
b11111000000 K"
b11111000000 Z"
b0 y
b11111111111111111000000 X"
b0 ~
b0 #"
b11111101010 ]
b11111101010 f
b11111101010 w
b10110 ^
b10110 g
b10110 x
b1000000 K
b1000000 i
b0 z
b0 $"
b0 o
b0 v
b1000000 *"
b1000000 H"
b11111111111100000000000 Y"
b1111111111100000000000 a"
b11111000000 N"
b11111000000 U"
b1 M
b1000000 h
b0 n
b100000 X
b100000 c
b1000000 G"
b111111000000 M"
b1000000 9"
b1000000 D"
b101 [
b1000000 B
b1000000 `
b1000000 )"
1=
b110 4
1*
#730000
0*
#735000
b0 O
b0 m
b0 |
b1000000 ."
b1000000 L"
b1000000 ["
b0 -"
b0 K"
b0 Z"
b0 }
b1000000 \"
b0 X"
b11111100000 ]
b11111100000 f
b11111100000 w
b0 ^
b0 g
b0 x
b1000000 K
b1000000 i
b0 z
b0 $"
b0 ~
b0 #"
b0 o
b0 v
b100000000000 ]"
b100000000000 `"
b11111100000 <"
b11111100000 E"
b11111100000 V"
b0 Y"
b0 a"
b0 ="
b0 F"
b0 W"
b10 M
b1000000 h
b0 n
b100000 X
b100000 c
b11111111 ,"
b110 [
b1000000 B
b1000000 `
b1000000 )"
1=
b1 :"
b111 4
1*
#740000
0*
#745000
b0 O
b0 m
b0 |
b0 -"
b0 K"
b0 Z"
b0 ."
b0 L"
b0 ["
b0 }
b0 X"
b0 \"
b0 <"
b0 E"
b0 V"
b100000 ="
b100000 F"
b100000 W"
b11111101010 ]
b11111101010 f
b11111101010 w
b0 z
b0 $"
b11111101010 ^
b11111101010 g
b11111101010 x
b1000000 K
b1000000 i
b0 ~
b0 #"
b0 o
b0 v
b0 +"
b0 J"
b0 ^"
b0 _"
b0 P"
b0 T"
b10000000 *"
b10000000 H"
b0 Y"
b0 a"
b0 ]"
b0 `"
b0 N"
b0 U"
b0 ,"
b11 M
b1000000 h
b0 n
b100000 X
b100000 c
b0 I"
b0 O"
b0 6"
b0 A"
b10000000 G"
b0 M"
b1000000 7"
b1000000 B"
b10 :"
b111 [
b1000000 B
b1000000 `
b1000000 )"
1=
b1000 4
1*
#750000
0*
#755000
b11110000000 j"
b11110000000 *#
b11110000000 9#
b11111111111111110000000 7#
b0 ]
b0 f
b0 w
b100000 ^
b100000 g
b100000 x
b0 ]"
b0 `"
b11111100000 <"
b11111100000 E"
b11111100000 V"
b0 ="
b0 F"
b0 W"
b10000000 *"
b10000000 H"
b0 Y"
b0 a"
b0 N"
b0 U"
b10000000 g"
b10000000 '#
b11111111111000000000000 8#
b1111111111000000000000 @#
b11110000000 -#
b11110000000 4#
b0 K
b0 i
b11111100 M
b1 ,"
b10000000 G"
b0 M"
b1000000 7"
b1000000 B"
b10000000 &#
b111110000000 ,#
b10000000 v"
b10000000 ##
b0 Z
b0 e
b0 h
b0 n
b0 X
b0 c
1\
b0 [
b1000000 B
b1000000 `
b1000000 )"
1=
b11 :"
b10000000 @
b10000000 ?"
b10000000 f"
1<
b0 9
b0 J
b0 .
b0 7
0,
b0 4
1*
#760000
0*
#765000
b0 j"
b0 *#
b0 9#
b0 k"
b0 +#
b0 :#
b0 7#
b0 ;#
b0 <"
b0 E"
b0 V"
b100000 ="
b100000 F"
b100000 W"
b0 h"
b0 )#
b0 =#
b0 >#
b0 /#
b0 3#
b100000000 g"
b100000000 '#
b0 8#
b0 @#
b0 <#
b0 ?#
b0 -#
b0 4#
b0 *"
b0 H"
b0 i"
b11111110 ,"
b0 (#
b0 .#
b0 s"
b0 ~"
b100000000 &#
b0 ,#
b10000000 t"
b10000000 !#
b11111101 M
b0 9"
b0 D"
b0 G"
b0 M"
b0 7"
b0 B"
b1 w"
1;"
b0 :"
b10000000 @
b10000000 ?"
b10000000 f"
1<
b1 [
b0 B
b0 `
b0 )"
1=
b1 4
1*
#770000
0*
#775000
b11111100000 <"
b11111100000 E"
b11111100000 V"
b0 ="
b0 F"
b0 W"
b0 g"
b0 '#
b11111110 M
b11111111 ,"
b11111111 i"
b0 v"
b0 ##
b0 &#
b0 ,#
b0 t"
b0 !#
b10 [
1=
b1 :"
b0 @
b0 ?"
b0 f"
1<
1x"
b0 w"
b100000000 !
b100000000 8
b100000000 >
b100000000 |"
1#
1;
b10 4
1*
#780000
0*
#785000
b0 <"
b0 E"
b0 V"
b100000 ="
b100000 F"
b100000 W"
b0 i"
b0 ,"
b11111111 M
b1 w"
b0 !
b0 8
b0 >
b0 |"
1#
1;
b10 :"
1<
b11 [
1=
b11 4
1*
#790000
0*
#795000
b11111100000 <"
b11111100000 E"
b11111100000 V"
b0 ="
b0 F"
b0 W"
b11111100 M
b1 ,"
b11111111 i"
0\
b0 [
1=
b11 :"
1<
b0 w"
1#
1;
b100 4
1*
#800000
0*
#805000
b0 <"
b0 E"
b0 V"
b100000 ="
b100000 F"
b100000 W"
b0 i"
b11111110 ,"
b1 w"
1#
1;
b0 :"
1<
0=
b101 4
1*
#810000
0*
#815000
b11111100000 <"
b11111100000 E"
b11111100000 V"
b0 ="
b0 F"
b0 W"
b11111111 ,"
b11111111 i"
b1 :"
1<
b0 w"
1#
1;
b110 4
1*
#820000
0*
#825000
b0 <"
b0 E"
b0 V"
b100000 ="
b100000 F"
b100000 W"
b0 i"
b11111110 ,"
b1 w"
1#
1;
0;"
b0 :"
1<
b111 4
1*
#830000
0*
#835000
b11111111 i"
0<
b0 w"
1#
1;
b1000 4
1*
#840000
0*
#845000
0x"
1#
1;
b1001 4
1*
#850000
0*
#855000
0#
0;
b1010 4
1*
#860000
0*
#865000
b1011 4
1*
#870000
0*
#875000
b1100 4
1*
#880000
0*
#885000
b1101 4
1*
#890000
0*
#895000
b1110 4
1*
#900000
0*
#905000
b1111 4
1*
#910000
0*
#915000
b10000 4
1*
#920000
0*
#925000
b10001 4
1*
#930000
0*
#935000
b10010 4
1*
#940000
0*
#945000
b10011 4
1*
#950000
0*
#955000
b10100 4
1*
