FFT/Verilog/tb_fft_cases.vcd
$date
	Mon Apr 13 13:55:15 2026
$end
$version
	Icarus Verilog
$end
$timescale
	1ps
$end
$scope module tb_fft_cases $end
$var wire 8 ! xr_out [7:0] $end
$var wire 8 " xi_out [7:0] $end
$var wire 1 # valid_out $end
$var parameter 32 $ N $end
$var parameter 33 % W $end
$var parameter 32 & a $end
$var parameter 32 ' b $end
$var reg 1 ( clk $end
$var reg 1 ) rst $end
$var reg 1 * valid_in $end
$var reg 8 + xi_in [7:0] $end
$var reg 8 , xr_in [7:0] $end
$var integer 32 - code [31:0] $end
$var integer 32 . fin [31:0] $end
$var integer 32 / fout [31:0] $end
$var integer 32 0 in_i [31:0] $end
$var integer 32 1 in_r [31:0] $end
$var integer 32 2 k [31:0] $end
$scope module DUT $end
$var wire 1 ( clk $end
$var wire 1 ) rst $end
$var wire 1 * valid_in $end
$var wire 8 3 xi_in [7:0] $end
$var wire 8 4 xr_in [7:0] $end
$var wire 8 5 s3r [7:0] $end
$var wire 8 6 s3i [7:0] $end
$var wire 8 7 s2r [7:0] $end
$var wire 8 8 s2i [7:0] $end
$var wire 8 9 s1r [7:0] $end
$var wire 8 : s1i [7:0] $end
$var parameter 33 ; W $end
$var parameter 32 < a $end
$var parameter 32 = b $end
$var reg 1 # valid_out $end
$var reg 5 > vcnt [4:0] $end
$var reg 1 ? vcnt_running $end
$var reg 8 @ xi_out [7:0] $end
$var reg 8 A xr_out [7:0] $end
$scope module STAGE1 $end
$var wire 1 ( clk $end
$var wire 3 B cnt_init [2:0] $end
$var wire 8 C d_i [7:0] $end
$var wire 8 D d_r [7:0] $end
$var wire 1 ) rst $end
$var wire 8 E x1i [7:0] $end
$var wire 8 F x1r [7:0] $end
$var wire 8 G s_r [7:0] $end
$var wire 8 H s_i [7:0] $end
$var wire 8 I in_r [7:0] $end
$var wire 8 J in_i [7:0] $end
$var wire 1 K first_half $end
$var wire 8 L f_r [7:0] $end
$var wire 8 M f_i [7:0] $end
$var parameter 32 N a $end
$var parameter 32 O b $end
$var parameter 34 P delay $end
$var parameter 32 Q stage_index $end
$var reg 3 R cnt [2:0] $end
$var reg 2 S tw [1:0] $end
$var reg 8 T y1i [7:0] $end
$var reg 8 U y1r [7:0] $end
$var integer 32 V k [31:0] $end
$scope module BF $end
$var wire 8 W a_imag [7:0] $end
$var wire 8 X a_real [7:0] $end
$var wire 8 Y b_imag [7:0] $end
$var wire 8 Z b_real [7:0] $end
$var wire 1 ( clk $end
$var wire 1 [ en $end
$var wire 1 ) rst $end
$var wire 2 \ twiddle_index [1:0] $end
$var wire 8 ] w_real [7:0] $end
$var wire 8 ^ w_imag [7:0] $end
$var wire 9 _ sum_r_full [8:0] $end
$var wire 9 ` sum_i_full [8:0] $end
$var wire 9 a sub_r_full [8:0] $end
$var wire 9 b sub_i_full [8:0] $end
$var wire 18 c rr [17:0] $end
$var wire 18 d ri [17:0] $end
$var wire 18 e mul_r_full [17:0] $end
$var wire 18 f mul_i_full [17:0] $end
$var wire 18 g ir [17:0] $end
$var wire 18 h ii [17:0] $end
$var parameter 34 i ADD_W $end
$var parameter 8 j MAX_VAL $end
$var parameter 8 k MIN_VAL $end
$var parameter 66 l MUL_W $end
$var parameter 33 m W $end
$var parameter 32 n a $end
$var parameter 32 o b $end
$var reg 8 p diff_imag [7:0] $end
$var reg 8 q diff_real [7:0] $end
$var reg 18 r mul_i_round [17:0] $end
$var reg 18 s mul_i_shift [17:0] $end
$var reg 18 t mul_r_round [17:0] $end
$var reg 18 u mul_r_shift [17:0] $end
$var reg 8 v sum_imag [7:0] $end
$var reg 8 w sum_real [7:0] $end
$scope module TW $end
$var wire 2 x twiddle_index [1:0] $end
$var parameter 32 y a $end
$var parameter 32 z b $end
$var reg 8 { w_imag [7:0] $end
$var reg 8 | w_real [7:0] $end
$upscope $end
$upscope $end
$upscope $end
$scope module STAGE2 $end
$var wire 1 ( clk $end
$var wire 3 } cnt_init [2:0] $end
$var wire 8 ~ d_i [7:0] $end
$var wire 8 !" d_r [7:0] $end
$var wire 1 ) rst $end
$var wire 8 "" x1i [7:0] $end
$var wire 8 #" x1r [7:0] $end
$var wire 8 $" s_r [7:0] $end
$var wire 8 %" s_i [7:0] $end
$var wire 8 &" in_r [7:0] $end
$var wire 8 '" in_i [7:0] $end
$var wire 1 (" first_half $end
$var wire 8 )" f_r [7:0] $end
$var wire 8 *" f_i [7:0] $end
$var parameter 32 +" a $end
$var parameter 32 ," b $end
$var parameter 33 -" delay $end
$var parameter 32 ." stage_index $end
$var reg 3 /" cnt [2:0] $end
$var reg 2 0" tw [1:0] $end
$var reg 8 1" y1i [7:0] $end
$var reg 8 2" y1r [7:0] $end
$var integer 32 3" k [31:0] $end
$scope module BF $end
$var wire 8 4" a_imag [7:0] $end
$var wire 8 5" a_real [7:0] $end
$var wire 8 6" b_imag [7:0] $end
$var wire 8 7" b_real [7:0] $end
$var wire 1 ( clk $end
$var wire 1 8" en $end
$var wire 1 ) rst $end
$var wire 2 9" twiddle_index [1:0] $end
$var wire 8 :" w_real [7:0] $end
$var wire 8 ;" w_imag [7:0] $end
$var wire 9 <" sum_r_full [8:0] $end
$var wire 9 =" sum_i_full [8:0] $end
$var wire 9 >" sub_r_full [8:0] $end
$var wire 9 ?" sub_i_full [8:0] $end
$var wire 18 @" rr [17:0] $end
$var wire 18 A" ri [17:0] $end
$var wire 18 B" mul_r_full [17:0] $end
$var wire 18 C" mul_i_full [17:0] $end
$var wire 18 D" ir [17:0] $end
$var wire 18 E" ii [17:0] $end
$var parameter 34 F" ADD_W $end
$var parameter 8 G" MAX_VAL $end
$var parameter 8 H" MIN_VAL $end
$var parameter 66 I" MUL_W $end
$var parameter 33 J" W $end
$var parameter 32 K" a $end
$var parameter 32 L" b $end
$var reg 8 M" diff_imag [7:0] $end
$var reg 8 N" diff_real [7:0] $end
$var reg 18 O" mul_i_round [17:0] $end
$var reg 18 P" mul_i_shift [17:0] $end
$var reg 18 Q" mul_r_round [17:0] $end
$var reg 18 R" mul_r_shift [17:0] $end
$var reg 8 S" sum_imag [7:0] $end
$var reg 8 T" sum_real [7:0] $end
$scope module TW $end
$var wire 2 U" twiddle_index [1:0] $end
$var parameter 32 V" a $end
$var parameter 32 W" b $end
$var reg 8 X" w_imag [7:0] $end
$var reg 8 Y" w_real [7:0] $end
$upscope $end
$upscope $end
$upscope $end
$scope module STAGE3 $end
$var wire 1 ( clk $end
$var wire 3 Z" cnt_init [2:0] $end
$var wire 8 [" d_i [7:0] $end
$var wire 8 \" d_r [7:0] $end
$var wire 1 ) rst $end
$var wire 8 ]" x1i [7:0] $end
$var wire 8 ^" x1r [7:0] $end
$var wire 8 _" s_r [7:0] $end
$var wire 8 `" s_i [7:0] $end
$var wire 8 a" in_r [7:0] $end
$var wire 8 b" in_i [7:0] $end
$var wire 1 c" first_half $end
$var wire 8 d" f_r [7:0] $end
$var wire 8 e" f_i [7:0] $end
$var parameter 32 f" a $end
$var parameter 32 g" b $end
$var parameter 32 h" delay $end
$var parameter 32 i" stage_index $end
$var reg 3 j" cnt [2:0] $end
$var reg 2 k" tw [1:0] $end
$var reg 8 l" y1i [7:0] $end
$var reg 8 m" y1r [7:0] $end
$var integer 32 n" k [31:0] $end
$scope module BF $end
$var wire 8 o" a_imag [7:0] $end
$var wire 8 p" a_real [7:0] $end
$var wire 8 q" b_imag [7:0] $end
$var wire 8 r" b_real [7:0] $end
$var wire 1 ( clk $end
$var wire 1 s" en $end
$var wire 1 ) rst $end
$var wire 2 t" twiddle_index [1:0] $end
$var wire 8 u" w_real [7:0] $end
$var wire 8 v" w_imag [7:0] $end
$var wire 9 w" sum_r_full [8:0] $end
$var wire 9 x" sum_i_full [8:0] $end
$var wire 9 y" sub_r_full [8:0] $end
$var wire 9 z" sub_i_full [8:0] $end
$var wire 18 {" rr [17:0] $end
$var wire 18 |" ri [17:0] $end
$var wire 18 }" mul_r_full [17:0] $end
$var wire 18 ~" mul_i_full [17:0] $end
$var wire 18 !# ir [17:0] $end
$var wire 18 "# ii [17:0] $end
$var parameter 34 ## ADD_W $end
$var parameter 8 $# MAX_VAL $end
$var parameter 8 %# MIN_VAL $end
$var parameter 66 &# MUL_W $end
$var parameter 33 '# W $end
$var parameter 32 (# a $end
$var parameter 32 )# b $end
$var reg 8 *# diff_imag [7:0] $end
$var reg 8 +# diff_real [7:0] $end
$var reg 18 ,# mul_i_round [17:0] $end
$var reg 18 -# mul_i_shift [17:0] $end
$var reg 18 .# mul_r_round [17:0] $end
$var reg 18 /# mul_r_shift [17:0] $end
$var reg 8 0# sum_imag [7:0] $end
$var reg 8 1# sum_real [7:0] $end
$scope module TW $end
$var wire 2 2# twiddle_index [1:0] $end
$var parameter 32 3# a $end
$var parameter 32 4# b $end
$var reg 8 5# w_imag [7:0] $end
$var reg 8 6# w_real [7:0] $end
$upscope $end
$upscope $end
$upscope $end
$upscope $end
$scope task close_case_files $end
$upscope $end
$scope task open_case_files $end
$var integer 32 7# cid [31:0] $end
$upscope $end
$scope task reset_dut $end
$upscope $end
$scope task run_case $end
$var integer 32 8# cid [31:0] $end
$upscope $end
$upscope $end
$enddefinitions $end
$comment Show the parameter values. $end
$dumpall
b101 4#
b11 3#
b101 )#
b11 (#
b1000 '#
b10010 &#
b10000000 %#
b1111111 $#
b1001 ##
b10 i"
b1 h"
b101 g"
b11 f"
b101 W"
b11 V"
b101 L"
b11 K"
b1000 J"
b10010 I"
b10000000 H"
b1111111 G"
b1001 F"
b1 ."
b10 -"
b101 ,"
b11 +"
b101 z
b11 y
b101 o
b11 n
b1000 m
b10010 l
b10000000 k
b1111111 j
b1001 i
b0 Q
b100 P
b101 O
b11 N
b101 =
b11 <
b1000 ;
b101 '
b11 &
b1000 %
b1000 $
$end
#0
$dumpvars
b1 8#
b1 7#
b100000 6#
b0 5#
b0 2#
b0 1#
b0 0#
b0 /#
b0 .#
b0 -#
b0 ,#
b0 +#
b0 *#
b0 "#
b0 !#
b0 ~"
b0 }"
b0 |"
b0 {"
b0 z"
b0 y"
b0 x"
b0 w"
b0 v"
b100000 u"
b0 t"
0s"
b0 r"
b0 q"
b0 p"
b0 o"
b1 n"
b0 m"
b0 l"
b0 k"
b0 j"
b0 e"
b0 d"
1c"
b0 b"
b0 a"
b0 `"
b0 _"
b0 ^"
b0 ]"
b0 \"
b0 ["
b0 Z"
b0 Y"
b11100000 X"
b10 U"
b0 T"
b0 S"
b0 R"
b10000 Q"
b0 P"
b10000 O"
b0 N"
b0 M"
b0 E"
b0 D"
b0 C"
b0 B"
b0 A"
b0 @"
b0 ?"
b0 >"
b0 ="
b0 <"
b11100000 ;"
b0 :"
b10 9"
18"
b0 7"
b0 6"
b0 5"
b0 4"
b10 3"
b0 2"
b0 1"
b10 0"
b11 /"
b0 *"
b0 )"
0("
b0 '"
b0 &"
b0 %"
b0 $"
b0 #"
b0 ""
b0 !"
b0 ~
b11 }
b100000 |
b0 {
b0 x
b0 w
b0 v
b0 u
b0 t
b0 s
b0 r
b0 q
b0 p
b0 h
b0 g
b0 f
b0 e
b0 d
b0 c
b0 b
b0 a
b0 `
b0 _
b0 ^
b100000 ]
b0 \
0[
b0 Z
b0 Y
b0 X
b0 W
b100 V
b0 U
b0 T
b0 S
b0 R
b0 M
b0 L
1K
b0 J
b0 I
b0 H
b0 G
b0 F
b0 E
b0 D
b0 C
b0 B
b0 A
b0 @
0?
b0 >
b0 :
b0 9
b0 8
b0 7
b0 6
b0 5
b0 4
b0 3
bx 2
bx 1
bx 0
b10000000000000000000000000000100 /
b10000000000000000000000000000011 .
bx -
b0 ,
b0 +
0*
1)
0(
0#
b0 "
b0 !
$end
#5000
b1 n"
b10 3"
b100 V
1(
#10000
0(
#15000
b100 V
b10 3"
b1 n"
1(
#20000
0(
#25000
b1 n"
b10 3"
b100 V
1(
#30000
0(
#35000
b100 V
b10 3"
b1 n"
1(
#40000
b10 -
b0 0
b100000 1
b0 2
0)
0(
#45000
b10000 ,#
b10000 .#
b0 O"
b0 Q"
b0 ;"
b0 X"
b100000 :"
b100000 Y"
1s"
08"
b0 0"
b0 9"
b0 U"
0c"
b1 j"
1("
b0 /"
b1 R
b0 n"
b0 3"
b0 V
1(
#50000
b100000 I
b0 1
b1 2
b100000 _
b111111110000000000 e
b111111110000000000 c
b111100000 a
b100000 ,
b100000 4
b100000 F
b100000 Z
1*
0(
#55000
b0 ,#
b0 .#
0s"
b10 R
b1 /"
1c"
b0 j"
b1 >
1?
b0 V
b0 3"
1(
#60000
b0 I
b10 2
b0 _
b0 e
b0 c
b0 a
b0 ,
b0 4
b0 F
b0 Z
0(
#65000
b10000 ,#
b10000 .#
b10000 O"
b10000 Q"
1s"
18"
b10 >
0c"
b1 j"
0("
b10 /"
b11 R
b0 3"
b0 V
1(
#70000
b11 2
0(
#75000
b10000 r
b10000 t
b11100000 ;"
b11100000 X"
b0 :"
b0 Y"
b0 ,#
b0 .#
1[
b10 0"
b10 9"
b10 U"
0s"
0K
b100 R
b11 /"
1c"
b0 j"
b11 >
b0 V
b0 3"
1(
#80000
b100 2
0(
#85000
b11101000 J
b11101000 M
b11101000 p
b111111111111101000 s
b10000 ,#
b10000 .#
b0 O"
b0 Q"
b0 ;"
b0 X"
b100000 :"
b100000 Y"
b10111 I
b111111110100100000 f
b111111110100100000 d
b11101001 ^
b11101001 {
b10111 ]
b10111 |
1s"
08"
b0 0"
b0 9"
b0 U"
b10111 L
b10111 q
b10111 u
b100000 G
b100000 w
b111111110100010000 r
b1011110000 t
b1 S
b1 \
b1 x
b100 >
0c"
b1 j"
1("
b0 /"
b100000 _
b1011100000 e
b1011100000 c
b100000 a
b100000 D
b100000 X
b101 R
b0 3"
b0 V
1(
#90000
b101 2
0(
#95000
b11100000 ^
b11100000 {
b0 ]
b0 |
b0 J
b0 I
b0 ,#
b0 .#
b10 S
b10 \
b10 x
b0 s
b0 u
b10000 r
b10000 t
b0 M
b0 p
b0 L
b0 q
b0 G
b0 w
b100000 &"
0s"
b110 R
b0 _
b0 e
b0 c
b0 f
b0 d
b0 a
b0 D
b0 X
b100000 <"
b111111110000000000 B"
b111111110000000000 @"
b111100000 >"
b100000 9
b100000 U
b100000 #"
b100000 7"
b1 /"
1c"
b0 j"
b101 >
b0 V
b0 3"
1(
#100000
b110 2
0(
#105000
b10000 ,#
b10000 .#
b10000 O"
b10000 Q"
b11101001 ^
b11101001 {
b11101001 ]
b11101001 |
1s"
18"
b0 &"
b11 S
b11 \
b11 x
b110 >
0c"
b1 j"
0("
b10 /"
b0 <"
b0 B"
b0 @"
b0 >"
b0 9
b0 U
b0 #"
b0 7"
b111 R
b0 3"
b0 V
1(
#110000
b111 2
0(
#115000
b11011111 '"
b11011111 *"
b11011111 M"
b111111111111011111 P"
b0 r
b0 t
b0 ^
b0 {
b100000 ]
b100000 |
b111111110000000000 C"
b111111110000000000 A"
b11100000 ;"
b11100000 X"
b0 :"
b0 Y"
b0 &"
b0 ,#
b0 .#
0[
b0 S
b0 \
b0 x
b10 0"
b10 9"
b10 U"
b0 )"
b0 N"
b0 R"
b100000 $"
b100000 T"
b111111101111110000 O"
b10000 Q"
0s"
1K
b0 R
b11 /"
b100000 <"
b0 B"
b0 @"
b100000 >"
b100000 !"
b100000 5"
1c"
b0 j"
b111 >
b0 V
b0 3"
1(
#120000
b1000 2
0(
#125000
b11011111 a"
b11011111 d"
b11011111 +#
b111111111111011111 /#
b10000 ,#
b111111101111110000 .#
b100000 _"
b100000 1#
b0 ;"
b0 X"
b100000 :"
b100000 Y"
1s"
b0 P"
b0 O"
b0 Q"
b0 *"
b0 M"
b0 $"
b0 T"
b0 '"
08"
b0 0"
b0 9"
b0 U"
b1000 >
0c"
b1 j"
b100000 w"
b111111110000000000 }"
b111111110000000000 {"
b111100000 y"
b100000 7
b100000 2"
b100000 ^"
b100000 r"
b0 <"
b0 C"
b0 A"
b0 >"
b0 !"
b0 5"
1("
b0 /"
b111101000 `
b111111110100000000 f
b111111110100000000 g
b111101000 b
b11101000 C
b11101000 W
b10111 _
b1011100000 e
b1011100000 c
b10111 a
b10111 D
b10111 X
b1 R
b0 3"
b0 V
1(
#130000
0*
0(
#135000
b11101000 '"
b10111 &"
b0 a"
0s"
b0 /#
b0 ,#
b0 .#
b0 d"
b0 +#
b0 _"
b0 1#
b10 R
b0 `
b0 f
b0 g
b0 b
b0 C
b0 W
b0 _
b0 e
b0 c
b0 a
b0 D
b0 X
b11101000 :
b11101000 T
b11101000 ""
b11101000 6"
b10111 <"
b111111110100100000 B"
b111111110100100000 @"
b111101001 >"
b10111 9
b10111 U
b10111 #"
b10111 7"
b1 /"
b111000111 ="
b111111111011100000 C"
b111111111011100000 D"
b111110111 ?"
b11011111 ~
b11011111 4"
b0 7
b0 2"
b0 ^"
b0 r"
1c"
b0 j"
b111011111 w"
b111111101111100000 }"
b111111101111100000 {"
b111011111 y"
b11011111 \"
b11011111 p"
b100000 5
b100000 m"
b1001 >
b0 V
b0 3"
1(
#140000
0(
#145000
b100001 b"
b100001 e"
b100001 *#
b100001 -#
b10000110000 ,#
b10000 .#
b11011111 `"
b11011111 0#
b10000 O"
b10000 Q"
1s"
18"
b0 '"
b0 &"
b100000 !
b100000 A
b1010 >
b11011111 5
b11011111 m"
b0 w"
b0 }"
b0 {"
b0 y"
b0 \"
b0 p"
0c"
b1 j"
b111011111 x"
b10000100000 ~"
b10000100000 !#
b100001 z"
b11011111 8
b11011111 1"
b11011111 ]"
b11011111 q"
b0 ~
b0 4"
0("
b10 /"
b0 ="
b0 C"
b0 D"
b0 ?"
b0 :
b0 T
b0 ""
b0 6"
b0 <"
b0 B"
b0 @"
b0 >"
b0 9
b0 U
b0 #"
b0 7"
b11 R
b0 3"
b0 V
1(
#150000
0(
#155000
b10000 r
b10000 t
b111111110100100000 A"
b1100000000 E"
b11100000 ;"
b11100000 X"
b0 :"
b0 Y"
b11101000 '"
b11100111 &"
1[
b10 0"
b10 9"
b10 U"
b11101000 *"
b11101000 M"
b11100111 )"
b11100111 N"
b111111111111101000 P"
b111111111111100111 R"
b11101000 %"
b11101000 S"
b10111 $"
b10111 T"
b111111110100010000 O"
b111111110011110000 Q"
b0 b"
0s"
b0 -#
b0 ,#
b0 .#
b0 e"
b0 *#
b0 `"
b0 0#
0K
b100 R
b11 /"
b111101000 ="
b111111110100100000 C"
b0 D"
b111101000 ?"
b11101000 ~
b11101000 4"
b10111 <"
b111111110100000000 B"
b0 @"
b10111 >"
b10111 !"
b10111 5"
b0 8
b0 1"
b0 ]"
b0 q"
1c"
b0 j"
b100001 x"
b10000100000 ~"
b10000100000 !#
b100001 z"
b100001 ["
b100001 o"
b11011111 6
b11011111 l"
b0 5
b0 m"
b1011 >
b11011111 !
b11011111 A
b0 V
b0 3"
1(
#160000
0(
#165000
b11000 b"
b11101000 a"
b11000 e"
b11000 *#
b11101000 d"
b11101000 +#
b11000 -#
b111111111111101000 /#
b1100010000 ,#
b111111110100010000 .#
b11101000 `"
b11101000 0#
b10111 _"
b10111 1#
b0 ;"
b0 X"
b100000 :"
b100000 Y"
b11101001 ^
b11101001 {
b10111 ]
b10111 |
1s"
b0 P"
b0 R"
b0 O"
b0 Q"
b0 *"
b0 M"
b0 )"
b0 N"
b0 %"
b0 S"
b0 $"
b0 T"
b0 &"
b0 '"
08"
b0 0"
b0 9"
b0 U"
b1 S
b1 \
b1 x
b11011111 "
b11011111 @
b0 !
b0 A
1#
b1100 >
b100001 6
b100001 l"
b0 ["
b0 o"
0c"
b1 j"
b111101000 x"
b1100000000 ~"
b1100000000 !#
b11000 z"
b11101000 8
b11101000 1"
b11101000 ]"
b11101000 q"
b10111 w"
b111111110100100000 }"
b111111110100100000 {"
b111101001 y"
b10111 7
b10111 2"
b10111 ^"
b10111 r"
b0 ="
b0 B"
b0 E"
b0 ?"
b0 ~
b0 4"
b0 <"
b0 C"
b0 A"
b0 >"
b0 !"
b0 5"
1("
b0 /"
b101 R
b0 3"
b0 V
1(
#170000
0(
#175000
b11100000 ^
b11100000 {
b0 ]
b0 |
b10 S
b10 \
b10 x
b0 a"
b0 b"
0s"
b0 -#
b0 /#
b0 ,#
b0 .#
b0 e"
b0 *#
b0 d"
b0 +#
b0 `"
b0 0#
b0 _"
b0 1#
b110 R
b1 /"
b111101000 ="
b111111110100000000 C"
b111111110100000000 D"
b111101000 ?"
b11101000 ~
b11101000 4"
b111100111 <"
b111111110011100000 B"
b111111110011100000 @"
b111100111 >"
b11100111 !"
b11100111 5"
b0 8
b0 1"
b0 ]"
b0 q"
b0 7
b0 2"
b0 ^"
b0 r"
1c"
b0 j"
b11000 x"
b1100000000 ~"
b1100000000 !#
b11000 z"
b11000 ["
b11000 o"
b111101000 w"
b111111110100000000 }"
b111111110100000000 {"
b111101000 y"
b11101000 \"
b11101000 p"
b11101000 6
b11101000 l"
b10111 5
b10111 m"
b1101 >
b100001 "
b100001 @
b0 V
b0 3"
1(
#180000
0(
#185000
b11000 b"
b11001 a"
b11000 e"
b11000 *#
b11001 d"
b11001 +#
b11000 -#
b11001 /#
b1100010000 ,#
b1100110000 .#
b11101000 `"
b11101000 0#
b11100111 _"
b11100111 1#
b11101001 ^
b11101001 {
b11101001 ]
b11101001 |
1s"
b10000 O"
b10000 Q"
18"
b11 S
b11 \
b11 x
b11101000 "
b11101000 @
b10111 !
b10111 A
b1110 >
b11000 6
b11000 l"
b11101000 5
b11101000 m"
b0 ["
b0 o"
b0 \"
b0 p"
0c"
b1 j"
b111101000 x"
b1100000000 ~"
b1100000000 !#
b11000 z"
b11101000 8
b11101000 1"
b11101000 ]"
b11101000 q"
b111100111 w"
b1100100000 }"
b1100100000 {"
b11001 y"
b11100111 7
b11100111 2"
b11100111 ^"
b11100111 r"
b0 ="
b0 C"
b0 D"
b0 ?"
b0 ~
b0 4"
b0 <"
b0 B"
b0 @"
b0 >"
b0 !"
b0 5"
0("
b10 /"
b111 R
b0 3"
b0 V
1(
#190000
0(
#195000
b0 r
b0 t
b0 ^
b0 {
b100000 ]
b100000 |
b11100000 ;"
b11100000 X"
b0 :"
b0 Y"
0[
b0 S
b0 \
b0 x
b10 0"
b10 9"
b10 U"
b0 a"
b0 b"
0s"
b0 -#
b0 /#
b0 ,#
b0 .#
b0 e"
b0 *#
b0 d"
b0 +#
b0 `"
b0 0#
b0 _"
b0 1#
1K
b0 R
b11 /"
b0 8
b0 1"
b0 ]"
b0 q"
b0 7
b0 2"
b0 ^"
b0 r"
1c"
b0 j"
b11000 x"
b1100000000 ~"
b1100000000 !#
b11000 z"
b11000 ["
b11000 o"
b11001 w"
b1100100000 }"
b1100100000 {"
b11001 y"
b11001 \"
b11001 p"
b11101000 6
b11101000 l"
b11100111 5
b11100111 m"
b1111 >
b11000 "
b11000 @
b11101000 !
b11101000 A
b0 V
b0 3"
1(
#200000
0(
#205000
b0 O"
b0 Q"
b0 ;"
b0 X"
b100000 :"
b100000 Y"
b10000 ,#
b10000 .#
1s"
08"
b0 0"
b0 9"
b0 U"
b11101000 "
b11101000 @
b11100111 !
b11100111 A
b10000 >
b11000 6
b11000 l"
b11001 5
b11001 m"
b0 x"
b0 ~"
b0 !#
b0 z"
b0 ["
b0 o"
b0 w"
b0 }"
b0 {"
b0 y"
b0 \"
b0 p"
0c"
b1 j"
1("
b0 /"
b1 R
b0 3"
b0 V
1(
#210000
0(
#215000
b0 ,#
b0 .#
0s"
b10 R
b1 /"
1c"
b0 j"
b0 6
b0 l"
b0 5
b0 m"
b10001 >
b11000 "
b11000 @
b11001 !
b11001 A
b0 V
b0 3"
1(
#220000
0(
#225000
b10000 ,#
b10000 .#
b10000 O"
b10000 Q"
1s"
18"
b0 "
b0 @
b0 !
b0 A
b10010 >
0c"
b1 j"
0("
b10 /"
b11 R
b0 3"
b0 V
1(
#230000
0(
#235000
b10000 r
b10000 t
b11100000 ;"
b11100000 X"
b0 :"
b0 Y"
b0 ,#
b0 .#
1[
b10 0"
b10 9"
b10 U"
0s"
0K
b100 R
b11 /"
1c"
b0 j"
b10011 >
b0 V
b0 3"
1(
#240000
0(
#245000
b10000 ,#
b10000 .#
b0 O"
b0 Q"
b0 ;"
b0 X"
b100000 :"
b100000 Y"
b11101001 ^
b11101001 {
b10111 ]
b10111 |
1s"
08"
b0 0"
b0 9"
b0 U"
b1 S
b1 \
b1 x
0#
0c"
b1 j"
1("
b0 /"
b101 R
b0 3"
b0 V
1(
#250000
0(
#255000
b11100000 ^
b11100000 {
b0 ]
b0 |
b0 ,#
b0 .#
b10 S
b10 \
b10 x
0s"
b110 R
b1 /"
1c"
b0 j"
b0 V
b0 3"
1(
#260000
0(
#265000
b10000 ,#
b10000 .#
b10000 O"
b10000 Q"
b11101001 ^
b11101001 {
b11101001 ]
b11101001 |
1s"
18"
b11 S
b11 \
b11 x
0c"
b1 j"
0("
b10 /"
b111 R
b0 3"
b0 V
1(
#270000
0(
#275000
b0 r
b0 t
b0 ^
b0 {
b100000 ]
b100000 |
b11100000 ;"
b11100000 X"
b0 :"
b0 Y"
b0 ,#
b0 .#
0[
b0 S
b0 \
b0 x
b10 0"
b10 9"
b10 U"
0s"
1K
b0 R
b11 /"
1c"
b0 j"
b0 V
b0 3"
1(
#280000
0(
#285000
b10000 ,#
b10000 .#
b0 O"
b0 Q"
b0 ;"
b0 X"
b100000 :"
b100000 Y"
1s"
08"
b0 0"
b0 9"
b0 U"
0c"
b1 j"
1("
b0 /"
b1 R
b0 3"
b0 V
1(
#290000
0(
#295000
b0 ,#
b0 .#
0s"
b10 R
b1 /"
1c"
b0 j"
b0 V
b0 3"
1(
#300000
0(
#305000
b10000 ,#
b10000 .#
b10000 O"
b10000 Q"
1s"
18"
0c"
b1 j"
0("
b10 /"
b11 R
b0 3"
b0 V
1(
#310000
0(
#315000
b10000 r
b10000 t
b11100000 ;"
b11100000 X"
b0 :"
b0 Y"
b0 ,#
b0 .#
1[
b10 0"
b10 9"
b10 U"
0s"
0K
b100 R
b11 /"
1c"
b0 j"
b0 V
b0 3"
1(
#320000
0(
#325000
b10000 ,#
b10000 .#
b0 O"
b0 Q"
b0 ;"
b0 X"
b100000 :"
b100000 Y"
b11101001 ^
b11101001 {
b10111 ]
b10111 |
1s"
08"
b0 0"
b0 9"
b0 U"
b1 S
b1 \
b1 x
0c"
b1 j"
1("
b0 /"
b101 R
b0 3"
b0 V
1(
#330000
0(
#335000
b11100000 ^
b11100000 {
b0 ]
b0 |
b0 ,#
b0 .#
b10 S
b10 \
b10 x
0s"
b110 R
b1 /"
1c"
b0 j"
b0 V
b0 3"
1(
#340000
0(
#345000
b10000 ,#
b10000 .#
b10000 O"
b10000 Q"
b11101001 ^
b11101001 {
b11101001 ]
b11101001 |
1s"
18"
b11 S
b11 \
b11 x
0c"
b1 j"
0("
b10 /"
b111 R
b0 3"
b0 V
1(
#350000
0(
#355000
b0 r
b0 t
b0 ^
b0 {
b100000 ]
b100000 |
b11100000 ;"
b11100000 X"
b0 :"
b0 Y"
b0 ,#
b0 .#
0[
b0 S
b0 \
b0 x
b10 0"
b10 9"
b10 U"
0s"
1K
b0 R
b11 /"
1c"
b0 j"
b0 V
b0 3"
1(
#360000
0(
#365000
b10000 ,#
b10000 .#
b0 O"
b0 Q"
b0 ;"
b0 X"
b100000 :"
b100000 Y"
1s"
08"
b0 0"
b0 9"
b0 U"
0c"
b1 j"
1("
b0 /"
b1 R
b0 3"
b0 V
1(
#370000
0(
#375000
b0 ,#
b0 .#
0s"
b10 R
b1 /"
1c"
b0 j"
b0 V
b0 3"
1(
#380000
0(
#385000
b10000 ,#
b10000 .#
b10000 O"
b10000 Q"
1s"
18"
0c"
b1 j"
0("
b10 /"
b11 R
b0 3"
b0 V
1(
#390000
0(
#395000
b10000 r
b10000 t
b11100000 ;"
b11100000 X"
b0 :"
b0 Y"
b0 ,#
b0 .#
1[
b10 0"
b10 9"
b10 U"
0s"
0K
b100 R
b11 /"
1c"
b0 j"
b0 V
b0 3"
1(
#400000
0(
#405000
b10000 ,#
b10000 .#
b0 O"
b0 Q"
b0 ;"
b0 X"
b100000 :"
b100000 Y"
b11101001 ^
b11101001 {
b10111 ]
b10111 |
1s"
08"
b0 0"
b0 9"
b0 U"
b1 S
b1 \
b1 x
0c"
b1 j"
1("
b0 /"
b101 R
b0 3"
b0 V
1(
#410000
0(
#415000
b11100000 ^
b11100000 {
b0 ]
b0 |
b0 ,#
b0 .#
b10 S
b10 \
b10 x
0s"
b110 R
b1 /"
1c"
b0 j"
b0 V
b0 3"
1(
#420000
0(
#425000
b0 r
b0 t
b10000 O"
b10000 Q"
b11100000 ;"
b11100000 X"
b0 :"
b0 Y"
b0 ^
b0 {
b100000 ]
b100000 |
0[
18"
b10 0"
b10 9"
b10 U"
b0 S
b0 \
b0 x
1K
0?
b0 >
1c"
b0 j"
0("
b11 /"
b0 R
b1 n"
1)
b10 7#
b10 8#
b10 3"
b100 V
1(
#430000
0(
#435000
b1 n"
b10 3"
b100 V
1(
#440000
0(
#445000
b100 V
b10 3"
b1 n"
1(
#450000
0(
#455000
b1 n"
b10 3"
b100 V
1(
#460000
0(
#465000
b100 V
b10 3"
b1 n"
1(
#470000
b100000 1
b0 2
0)
0(
#475000
b10000 ,#
b10000 .#
b0 O"
b0 Q"
b0 ;"
b0 X"
b100000 :"
b100000 Y"
1s"
08"
b0 0"
b0 9"
b0 U"
0c"
b1 j"
1("
b0 /"
b1 R
b0 n"
b0 3"
b0 V
1(
#480000
b100000 I
b1 2
b100000 _
b111111110000000000 e
b111111110000000000 c
b111100000 a
b100000 ,
b100000 4
b100000 F
b100000 Z
1*
0(
